{
  "en": {
    "links": [
      {
        "label": "Intro",
        "path": "/"
      },
      {
        "label": "About",
        "path": "/about",
        "translate": "acerca-de-mi"
      },
      {
        "label": "Skills",
        "path": "/skills",
        "translate": "habilidades"
      },
      {
        "label": "Work",
        "path": "/work",
        "translate": "trabajos"
      },
      {
        "label": "Contact",
        "path": "/contact",
        "translate": "contacto"
      }
    ]
  },
  "es": {
    "links": [
      {
        "label": "Intro",
        "path": "/"
      },
      {
        "label": "Acerca de Mi",
        "path": "/acerca-de-mi",
        "translate": "about"
      },
      {
        "label": "Habilidades",
        "path": "/habilidades",
        "translate": "skills"
      },
      {
        "label": "Trabajos",
        "path": "/trabajos",
        "translate": "work"
      },
      {
        "label": "Contacto",
        "path": "/contacto",
        "translate": "contact"
      }
    ]
  }
}